absl-py==0.9.0
astor==0.8.1
attrs==19.3.0
audioread==2.1.8
Automat==20.2.0
bleach==3.1.3
cachetools==4.0.0
certifi==2019.11.28
cffi==1.14.0
chardet==3.0.4
constantly==15.1.0
construct==2.10.56
cycler==0.10.0
decorator==4.4.2
docutils==0.16
gast==0.2.2
google-auth==1.11.3
google-auth-oauthlib==0.4.1
google-pasta==0.2.0
grpcio==1.27.2
h5py==2.10.0
hyperlink==19.0.0
idna==2.9
importlib-metadata==1.5.0
incremental==17.5.0
joblib==0.14.1
Keras==2.3.1
Keras-Applications==1.0.8
Keras-Preprocessing==1.1.0
keyring==21.2.0
kiwisolver==1.1.0
librosa==0.7.2
llvmlite==0.31.0
Markdown==3.2.1
matplot==0.1.9
matplotlib==3.2.1
noisereduce==1.1.0
numba==0.48.0
numpy==1.18.2
oauthlib==3.1.0
opt-einsum==3.2.0
pandas==1.0.3
Pillow==7.1.1
pkginfo==1.5.0.1
ply==3.11
protobuf==3.11.3
pyasn1==0.4.8
pyasn1-modules==0.2.8
pycparser==2.20
pycryptodomex==3.9.7
Pygments==2.6.1
PyHamcrest==2.0.2
pyloco==0.0.139
pyparsing==2.4.6
pysmi==0.3.4
pysnmp==4.4.12
python-dateutil==2.8.1
pytz==2019.3
pywin32-ctypes==0.2.0
PyYAML==5.3.1
readme-renderer==25.0
requests==2.23.0
requests-oauthlib==1.3.0
requests-toolbelt==0.9.1
resampy==0.2.2
rsa==4.0
scikit-learn==0.22.2.post1
scipy==1.4.1
six==1.14.0
sounddevice==0.3.15
SoundFile==0.10.3.post1
tensor==0.3.6
tensorboard==2.1.1
tensorflow==2.1.0
tensorflow-estimator==2.1.0
termcolor==1.1.0
tqdm==4.43.0
twine==3.1.1
Twisted==20.3.0
typing==3.7.4.1
urllib3==1.25.8
ushlex==0.99.1
Werkzeug==1.0.0
wrapt==1.12.1
zipp==3.1.0
zope.interface==5.0.1
